							ELITE TRAVEL AND TOUR 
-------------------------------------------------------------------------------------------------------------------------------------------- 
-------------------------------------------------------------------------------------------------------------------------------------------- 
FLIGHT NUMBER  			 DEPARTURE TIME  			 ARRIVAL TIME  			 DATE OF FLIGHT    
 Pk2333 			  5:40  				 4:30  				 12jan2019 
 
------------------------------------------------------------------------------------------------------------------------------------------- 
FULL NAME   			 CONTECT NUMBER   			 TRAVEL ITINERARY			 CLASS TO TRAVEL   
 usama 			  90909  				 khkjh  				 Economy 


 									  TOTAL PAID :16000
-------------------------------------------------------------------------------------------------------------------------------------------- 
